ETC5521: Exploratory Data Analysis
…
.panelset[
.panel[.panel-name[ğŸ“Š]
.grid[
.item[
<img src="images/week4A/galton-plot1-1.png" width="460.8" style="display: block; margin: auto;" />
<img src="images/week4A/galton-plot2-1.png" width="432" style="display: block; margin: auto;" />

]
.item[

* Midparent's height is an average of the father's height and 1.08 times the mother's height. 
* The data contains 205 parents and 928 children.

```
## # A tibble: 928 x 2
##   child parent
##   <dbl>  <dbl>
## 1  61.7     64
## 2  63.2     64
## 3  63.2     64
## # â€¦ with 925 more rows
```
…
