ETC5521: Exploratory Data Analysis
…
## Longitudinal data

Information from the same individuals, recorded at multiple points in time.

Usually irregular, and not easy to regularise. Lots more short series.

Longitudinal data has the .monash-yellow2[same properties] as time series, but generally .monash-yellow2[different objectives] for the analysis.

---

 In the `brolgar` package methods build on the `tsibble` data object.  

```
*## # A tsibble: 6,402 x 9 [!]
*## # Key:       id [888]
##       id ln_wages    xp   ged xp_since_ged black hispanic high_grade unemploy_rate
##    <int>    <dbl> <dbl> <int>        <dbl> <int>    <int>      <int>         <dbl>
##  1    31     1.49 0.015     1        0.015     0        1          8          3.21
##  2    31     1.43 0.715     1        0.715     0        1          8          3.21
##  3    31     1.47 1.73      1        1.73      0        1          8          3.21
##  4    31     1.75 2.77      1        2.77      0        1          8          3.3 
##  5    31     1.93 3.93      1        3.93      0        1          8          2.89
##  6    31     1.71 4.95      1        4.95      0        1          8          2.49
##  7    31     2.09 5.96      1        5.96      0        1          8          2.6 
##  8    31     2.13 6.98      1        6.98      0        1          8          4.8 
##  9    36     1.98 0.315     1        0.315     0        0          9          4.89
## 10    36     1.80 0.983     1        0.983     0        0          9          7.4 
## # … with 6,392 more rows
```
…
.pull-left[
It can be important to filter on this, to remove subjects with little information

```r
*wages <- wages %>% add_n_obs()
wages %>% 
* filter(n_obs > 3) %>%
  select(id, ln_wages, xp, n_obs)
```
]

.pull-right[

```
## # A tsibble: 6,145 x 4 [!]
*## # Key:       id [764]
##       id ln_wages    xp n_obs
##    <int>    <dbl> <dbl> <int>
##  1    31     1.49 0.015     8
##  2    31     1.43 0.715     8
##  3    31     1.47 1.73      8
##  4    31     1.75 2.77      8
##  5    31     1.93 3.93      8
##  6    31     1.71 4.95      8
##  7    31     2.09 5.96      8
##  8    31     2.13 6.98      8
##  9    36     1.98 0.315    10
## 10    36     1.80 0.983    10
## # … with 6,135 more rows
```
…
