ETC5521: Exploratory Data Analysis
…
- work day vs holiday pattern
- daily patterns
- weather and season related changes
- event related patterns

---
# Regular vs irregular

The Melbourne pedestrian sensor data has a .monash-orange2[regular] period. Counts are provided for every hour, at numerous locations.

In contrast, the US flights data, below, is .monash-orange2[irregular]. 

```
*## # A tsibble: 336,776 x 20 [!] <UTC>
## # Key:       origin, dest, carrier, tailnum [52,807]
##     year month   day dep_time sched_dep_time dep_delay arr_time sched_arr_time arr_delay carrier flight tailnum origin dest  air_time distance  hour minute time_hour           dt                 
##    <int> <int> <int>    <int>          <int>     <dbl>    <int>          <int>     <dbl> <chr>    <int> <chr>   <chr>  <chr>    <dbl>    <dbl> <dbl>  <dbl> <dttm>              <dttm>             
##  1  2013     1    30     2224           2000       144     2316           2101       135 EV        4309 N10575  EWR    ALB         31      143    20      0 2013-01-30 20:00:00 2013-01-30 20:00:00
##  2  2013     2    17     2012           2010         2     2120           2114         6 EV        4162 N10575  EWR    ALB         33      143    20     10 2013-02-17 20:00:00 2013-02-17 20:10:00
##  3  2013     2    26     2356           2000       236       41           2104       217 EV        4162 N10575  EWR    ALB         24      143    20      0 2013-02-26 20:00:00 2013-02-26 20:00:00
##  4  2013     3    13     1958           2005        -7     2056           2109       -13 EV        4566 N10575  EWR    ALB         32      143    20      5 2013-03-13 20:00:00 2013-03-13 20:05:00
##  5  2013     5    16     2214           2000       134     2307           2112       115 EV        4117 N10575  EWR    ALB         30      143    20      0 2013-05-16 20:00:00 2013-05-16 20:00:00
##  6  2013     5    30     2045           2000        45     2141           2112        29 EV        4117 N10575  EWR    ALB         29      143    20      0 2013-05-30 20:00:00 2013-05-30 20:00:00
##  7  2013     9    11     2254           2159        55     2336           2303        33 EV        6043 N10575  EWR    ALB         27      143    21     59 2013-09-11 21:00:00 2013-09-11 21:59:00
##  8  2013     9    12       NA           2159        NA       NA           2303        NA EV        6043 N10575  EWR    ALB         NA      143    21     59 2013-09-12 21:00:00 2013-09-12 21:59:00
##  9  2013     9     8     2156           2159        -3     2250           2303       -13 EV        4264 N11113  EWR    ALB         29      143    21     59 2013-09-08 21:00:00 2013-09-08 21:59:00
## 10  2013     1    26     1614           1620        -6     1706           1724       -18 EV        4271 N11119  EWR    ALB         34      143    16     20 2013-01-26 16:00:00 2013-01-26 16:20:00
## # … with 336,766 more rows
```
…
```r
flights_hourly <- flights %>%
* group_by(time_hour, origin) %>%
* summarise(count = n(),
*   dep_delay = mean(dep_delay,
*                    na.rm = TRUE)) %>%
  ungroup() %>%
  as_tsibble(index = time_hour, 
             key = origin)
flights_hourly
```

```
*## # A tsibble: 19,486 x 4 [1h] <America/New_York>
## # Key:       origin [3]
##    time_hour           origin count dep_delay
##    <dttm>              <chr>  <int>     <dbl>
##  1 2013-01-01 05:00:00 EWR        2     -1   
##  2 2013-01-01 06:00:00 EWR       18      3.06
##  3 2013-01-01 07:00:00 EWR       12     14.2 
##  4 2013-01-01 08:00:00 EWR       20      0.75
##  5 2013-01-01 09:00:00 EWR       19      9.05
##  6 2013-01-01 10:00:00 EWR       18      2.06
##  7 2013-01-01 11:00:00 EWR       11      0   
##  8 2013-01-01 12:00:00 EWR       22      6.73
##  9 2013-01-01 13:00:00 EWR       28     28.7 
## 10 2013-01-01 14:00:00 EWR       18     33.7 
## # … with 19,476 more rows
```
…
